class,table,colname,property.pname,property.object,property.type,property.ref-property,type,settings.data.role,settings.data.allow-null,settings.data.regex.rule,settings.data.regex.message,settings.data.unique,settings.data.width,settings.data.fixed-width,settings.data.default,settings.data.searchable,settings.data.ref-key-check,settings.ui.control,settings.ui.show-on-page.add,settings.ui.show-on-page.edit,settings.ui.show-on-page.delete,settings.ui.show-on-page.details,settings.ui.do-not-show-on-page.add,settings.ui.do-not-show-on-page.edit,settings.ui.do-not-show-on-page.delete,settings.ui.do-not-show-on-page.details,data.initialvalues
SystemPolicy,_systemPolicy,policyId,policyId,,,,integer,primary,,,,,,,,,,,,,,,,,,,
,,policyName,policyName,,,,text,value,FALSE,,,TRUE,64,,,,,,,,,,,,,,
,,caption,caption,,,,text,,,,,,96,,,,,,,,,,,,,,
,,root,root,,,,boolean,,,,,,,,0,,,,,,,,,,,,
,,extraFilter,extraFilter,,,,text,,,,,,32,,,TRUE,,,,,,,,,,,
,,extraInformation,extraInformation,,,,text,,,,,,64,,,TRUE,,,,,,,,,,,
,,flags,flags,,,,integer,,,,,,,,0,TRUE,,,,,,,,,,,
DaysOfAWeek,_daysOfAWeek,dayId,dayId,,,,integer,primary,,,,,,,,,,,,,,,,,,,"{1,2,3,4,5,6,7}"
,,dayName,dayName,,,,text,value,FALSE,,,TRUE,9,,,,,,,,,,,,,,"{'Sunday', 'Monday', 'Tuesday', 'Wednesday', 'Thursday', 'Friday', 'Saturday'}"
,,abbreviation,abbreviation,,,,text,,FALSE,,,TRUE,4,,,,,,,,,,,,,,"{'Sun', 'Mon', 'Tue', 'Wed', 'Thur', 'Fri', 'Sat'}"
,,offsetValue,offsetValue,,,,integer,,FALSE,,,TRUE,,,,,,,,,,,,,,,"{0, 1, 2, 3, 4, 5, 6}"
,,extraFilter,extraFilter,,,,text,,,,,,32,,,TRUE,,,,,,,,,,,
,,extraInformation,extraInformation,,,,text,,,,,,64,,,TRUE,,,,,,,,,,,
,,flags,flags,,,,integer,,,,,,,,0,TRUE,,,,,,,,,,,
MonthOfAYear,_monthOfAYear,monthId,monthId,,,,integer,primary,,,,,,,,,,,,,,,,,,,"{1,2,3,4,5,6,7,8,9,10,11,12}"
,,monthName,monthName,,,,text,value,FALSE,,,TRUE,9,,,,,,,,,,,,,,"{'January', 'February', 'March', 'April', 'May', 'June', 'July', 'August', 'September', 'October', 'November', 'December'}"
,,abbreviation,abbreviation,,,,text,,FALSE,,,TRUE,3,,,,,,,,,,,,,,"{'Jan', 'Feb', 'Mar', 'Apr', 'May', 'Jun', 'Jul', 'Aug', 'Sep', 'Oct', 'Nov', 'Dec'}"
,,number,number,,,,integer,,FALSE,,,TRUE,,,,,,,,,,,,,,,"{1, 2, 3, 4, 5, 6, 7, 8, 9, 10, 11, 12}"
,,extraFilter,extraFilter,,,,text,,,,,,32,,,TRUE,,,,,,,,,,,
,,extraInformation,extraInformation,,,,text,,,,,,64,,,TRUE,,,,,,,,,,,
,,flags,flags,,,,integer,,,,,,,,0,TRUE,,,,,,,,,,,
Theme,_theme,themeId,themeId,,,,integer,primary,,,,,,,,,,,,,,,,,,,
,,themeName,themeName,,,,text,value,FALSE,,,TRUE,24,,,,,,,,,,,,,,
,,folder,folder,,, ,text,,,,,,16,,,,,,,,,,,,,,
,,backgroundColour,backgroundColour,,,,text,,,,,,6,,,,,,,,,,,,,,
,,backgroundImage,backgroundImage,,,,text,,,,,,16,,,,,,,,,,,,,,
,,fontFace,fontFace,,,,text,,,,,,108,,,,,,,,,,,,,,
,,fontSize,fontSize,,,,text,,,,,,8,,,,,,,,,,,,,,
,,fontColour,fontColour,,,,text,,,,,,6,,,,,,,,,,,,,,
,,extraFilter,extraFilter,,,,text,,,,,,32,,,TRUE,,,,,,,,,,,
,,extraInformation,extraInformation,,,,text,,,,,,64,,,TRUE,,,,,,,,,,,
,,flags,flags,,,,integer,,,,,,,,0,TRUE,,,,,,,,,,,
Language,_language,languageId,languageId,,,,integer,primary,,,,,,,,,,,,,,,,,,,"{1,2}"
,,languageName,languageName,,,,text,value,FALSE,,,TRUE,32,,,,,,,,,,,,,,"{'English', 'Kiswahili'}"
,,code,code,,,,text,,FALSE,,,TRUE,8,,,,,,,,,,,,,,"{'En', 'Sw'}"
,,extraFilter,extraFilter,,,,text,,,,,,32,,,TRUE,,,,,,,,,,,
,,extraInformation,extraInformation,,,,text,,,,,,64,,,TRUE,,,,,,,,,,,
,,flags,flags,,,,integer,,,,,,,,0,TRUE,,,,,,,,,,,
Country,_country,countryId,countryId,,,,integer,primary,,,,,,,,,,,,,,,,,,,@import://country.csv/countryId
,,countryName,countryName,,,,text,value,FALSE,,,TRUE,48,,,,,,,,,,,,,,@import://country.csv/countryName
,,abbreviation,abbreviation,,,,text,,FALSE,,,FALSE,4,,,,,,,,,,,,,,@import://country.csv/abbreviation
,,code,code,,,,integer,,FALSE,,,FALSE,,,,,,,,,,,,,,,@import://country.csv/code
,,timezone,timezone,,,,text,,FALSE,,,,5,,'03:00',,,,,,,,,,,,@import://country.csv/timezone
,,extraFilter,extraFilter,,,,text,,,,,,32,,,TRUE,,,,,,,,,,,
,,extraInformation,extraInformation,,,,text,,,,,,64,,,TRUE,,,,,,,,,,,
,,flags,flags,,,,integer,,,,,,,,0,TRUE,,,,,,,,,,,
PHPTimezone,_pHPTimezone,zoneId,zoneId,,,,integer,primary,,,,,,,,,,,,,,,,,,,{1}
,,zoneName,zoneName,,,,text,value,FALSE,,,TRUE,48,,,,,,,,,,,,,,{'africa/dar_es_salaam'}
,,extraFilter,extraFilter,,,,text,,,,,,32,,,TRUE,,,,,,,,,,,
,,extraInformation,extraInformation,,,,text,,,,,,64,,,TRUE,,,,,,,,,,,
,,flags,flags,,,,integer,,,,,,,,0,TRUE,,,,,,,,,,,
Profile,_profile,profileId,profileId,,,,integer,primary,,,,,,,,,,,,,,,,,,,
,,profileName,profileName,,,,text,value,FALSE,,,TRUE,96,,'Default Profile',,,,,,,,,,,,{'Zoomtong Company Limited'}
,,systemName,systemName,,,,text,,FALSE,,,TRUE,108,,'Default Sys',,,,,,,,,,,,{'Zoomtong Auto Garage'}
,,logo,logo,,,,text,,,,,,64,,,,,,,,,,,,,,
,,telephoneList,telephoneList,,,,text,,,,,,255,,,,,,,,,,,,,,
,,emailList,emailList,,,,text,,,,,,255,,,,,,,,,,,,,,
,,otherCommunication,otherCommunication,,,,text,,,,,,255,,,,,,,,,,,,,,
,,website,website,,,,text,,,,,,64,,,,,,,,,,,,,,
,,fax,fax,,,,text,,,,,,32,,,,,,,,,,,,,,
,,city,city,,,,text,,,,,,32,,,,,,,,,,,,,,{'Dar es Salaam'}
,,countryId,country,Country,,countryId,object,,,,,,,,,,,,,,,,,,,,{1}
,,pHPTimezoneId,PHPTimezone,PHPTimezone,,zoneId,object,,,,,,,,,,,,,,,,,,,,{1}
,,dob,dob,DateAndTime,text,,object,,,,,,19,,,,FALSE,,,,,,,,,,{'1983:05:06:23:07:57'}
,,firstDayOfAWeekId,firstDayOfAWeek,DaysOfAWeek,,dayId,object,,,,,,,,,,,,,,,,,,,,{1}
,,xmlFile,xmlFile,,,,text,,,,,,64,,,,,,,,,,,,,,{'data/profile/profile.xml'}
,,xmlFileChecksum,xmlFileChecksum,,,,text,,,,,,32,TRUE,,,,,,,,,,,,,
,,serverIP4Address,serverIP4Address,,,,text,,,,,,15,,'192.168.1.1',,,,,,,,,,,,
,,localAreaNetwork4Mask,localAreaNetwork4Mask,,,,text,,,,,,15,,'255.255.255.0',,,,,,,,,,,,
,,maxNumberOfReturnedSearchRecords,maximumNumberOfReturnedSearchRecords,,,,integer,,FALSE,,,,,,512,,,,,,,,,,,,
,,maxNumberOfDisplayedRowsPerPage,maximumNumberOfDisplayedRowsPerPage,,,,integer,,FALSE,,,,,,64,,,,,,,,,,,,
,,minAgeCriteriaForUsers,minimumAgeCriteriaForUsers,,,,integer,,FALSE,,,,,,4,,,,,,,,,,,,
,,applicationCounter,applicationCounter,,,,integer,,FALSE,,,,,,0,,,,,,,,,,,,
,,revisionNumber,revisionNumber,,,,integer,,FALSE,,,,,,1,,,,,,,,,,,,
,,revisionTime,revisionTime,DateAndTime,text,,object,,FALSE,,,,19,,'0000:00:00:00:00:00',,FALSE,,,,,,,,,,
,,tinNumber,tinNumber,,,,text,,,,,,16,,,,,,,,,,,,,,
,,systemHash,systemHash,,,,text,,,,,,32,TRUE,,,,,,,,,,,,,
,,extraFilter,extraFilter,,,,text,,,,,,32,,,TRUE,,,,,,,,,,,
,,extraInformation,extraInformation,,,,text,,,,,,64,,,TRUE,,,,,,,,,,,
,,flags,flags,,,,integer,,,,,,,,0,TRUE,,,,,,,,,,,
Group,_groups,groupId,groupId, ,, ,integer,primary,,,,,,,,,,,,,,,,,,,{1}
,,groupName,groupName,,,,text,value,FALSE,,,TRUE,96,,,,,,,,,,,,,,{'System'}
,,pId,parentGroup,Group,,groupId,object,,,,,,,,,,,,,,,,,,,,
,,context,context,,,,text,,FALSE,,,,255,TRUE,';;;;;;;;;;;;;;;;;;;;;;;;;;;;;;;;;;;;;;;;;;;;;;;;;;;;;;;;;;;;;;;;;;;;;;;;;;;;;;;;;;;;;;;;;;;;;;;;;;;;;;;;;;;;;;;;;;;;;;;;;;;;;;;;;;;;;;;;;;;;;;;;;;;;;;;;;;;;;;;;;;;;;;;;;;;;;;;;;;;;;;;;;;;;;;;;;;;;;;;;;;;;;;;;;;;;;;;;;;;;;;;;;;;;;;;;;;;;;;;;;;;;;;;;;;;;;;;',,,,,,,,,,,,
,,root,root,,,,boolean,,FALSE,,,,,,0,,,,,,,,,,,,{1}
,,extraFilter,extraFilter,,,,text,,,,,,32,,,TRUE,,,,,,,,,,,
,,extraInformation,extraInformation,,,,text,,,,,,64,,,TRUE,,,,,,,,,,,
,,flags,flags,,,,integer,,,,,,,,0,TRUE,,,,,,,,,,,
JobTitle,_jobTitle,jobId,jobId,,,,integer,primary,,,,,,,,,,,,,,,,,,,{1}
,,jobName,jobName,,,,text,value,FALSE,,,TRUE,64,,,,,,,,,,,,,,{'Main Supervisor'}
,,context,context,,,,text,,FALSE,,,,255,TRUE,';;;;;;;;;;;;;;;;;;;;;;;;;;;;;;;;;;;;;;;;;;;;;;;;;;;;;;;;;;;;;;;;;;;;;;;;;;;;;;;;;;;;;;;;;;;;;;;;;;;;;;;;;;;;;;;;;;;;;;;;;;;;;;;;;;;;;;;;;;;;;;;;;;;;;;;;;;;;;;;;;;;;;;;;;;;;;;;;;;;;;;;;;;;;;;;;;;;;;;;;;;;;;;;;;;;;;;;;;;;;;;;;;;;;;;;;;;;;;;;;;;;;;;;;;;;;;;;',,,,,,,,,,,,
,,extraFilter,extraFilter,,,,text,,,,,,32,,,TRUE,,,,,,,,,,,
,,extraInformation,extraInformation,,,,text,,,,,,64,,,TRUE,,,,,,,,,,,
,,flags,flags,,,,integer,,,,,,,,0,TRUE,,,,,,,,,,,
Sex,_sex,sexId,sexId,,,,integer,primary,,,,,,,,,,,,,,,,,,,"{1,2}"
,,sexName,sexName,,,,text,value,FALSE,,,TRUE,8,,,,,,,,,,,,,,"{'Male', 'Female'}"
,,extraFilter,extraFilter,,,,text,,,,,,32,,,TRUE,,,,,,,,,,,
,,extraInformation,extraInformation,,,,text,,,,,,64,,,TRUE,,,,,,,,,,,
,,flags,flags,,,,integer,,,,,,,,0,TRUE,,,,,,,,,,,
Marital,_marital,maritalId,maritalId,,,,integer,primary, ,,,,,,,,,,,,,,,,,,"{1,2,3,4,5,6,7,8,9}"
,,maritalName,maritalName,,,,text,value,FALSE,,,TRUE,24,,,,,,,,,,,,,,"{'Single', 'Married', 'Divorced', 'Widowed', 'Widower', 'Cohabiting', 'Civil Union', 'Domestic Partner', 'Unmarried Partner'}"
,,extraFilter,extraFilter,,,,text,,,,,,32,,,TRUE,,,,,,,,,,,
,,extraInformation,extraInformation,,,,text,,,,,,64,,,TRUE,,,,,,,,,,,
,,flags,flags,,,,integer,,,,,,,,0,TRUE,,,,,,,,,,,
UserStatus,_userStatus,statusId,statusId,,,,integer,primary,,,,,,,,,,,,,,,,,,,"{1,2,3,4,5}"
,,statusName,statusName,,,,text,value,FALSE,,,TRUE,32,,,,,,,,,,,,,,"{'Alive', 'Dead', 'Leave', 'Martenity', 'Partenity'}"
,,code,code,,,,integer,,FALSE,,, ,,,,,,,,,,,,,,,"{1, 2, 3, 4, 5}"
,,alive,alive,,,,boolean,,FALSE,,,,,,1,,,,,,,,,,,,"{1, 0, 1, 1, 1}"
,,extraFilter,extraFilter,,,,text,,,,,,32,,,TRUE,,,,,,,,,,,
,,extraInformation,extraInformation,,,,text,,,,,,64,,,TRUE,,,,,,,,,,,
,,flags,flags,,,,integer,,,,,,,,0,TRUE,,,,,,,,,,,
SecurityQuestion,_securityQuestion,questionId,questionId,,,,integer,primary,,,,,,,,,,,,,,,,,,,@import://securityQuestion.csv/questionId
,,questionName,questionName,,,,text,value,FALSE,,,TRUE,96,,,,,,,,,,,,,,@import://securityQuestion.csv/questionName
,,extraFilter,extraFilter,,,,text,,,,,,32,,,TRUE,,,,,,,,,,,
,,extraInformation,extraInformation,,,,text,,,,,,64,,,TRUE,,,,,,,,,,,
,,flags,flags,,,,integer,,,,,,,,0,TRUE,,,,,,,,,,,
Login,_login,loginId,loginId,,,,integer,primary,,,,,,,,,,,,,,,,,,,{1}
,,loginName,loginName,,,,text,value,,"""^([A-Za-z](\w){1,31})|(((\w+\+*\-*)+\.?)+@((\w+\+*\-*)+\.?)*[\w-]+\.[a-z]{2,6})$""","""Username, min length=2, max length=32, must start with Alphabet and no special characters ie. ' ^ & etc or a VALID EMAIL ADDRESS""",TRUE,56,,,,,,,,,,,,,,{'admin'}
,,password,password,,,,text,,,,,,40,TRUE,,FALSE,,,FALSE,FALSE,FALSE,FALSE,,,,,{'d033e22ae348aeb5660fc2140aec35850c4da997'}
,,fullName,fullName,,,,text,,,"""^[A-Za-z](\w|\s){1,47}$""","""2 - 48 characters, must start with an Alphabet""",,48,,,,,,,,,,,,,,{'System Administrator'}
,,groupId,group,Group,,groupId,object,,,,,,,,,,,,,,,,,,,,{1}
,,sexId,sex,Sex,,sexId,object,,,,,,,,,,,,,,,,,,,,{1}
,,maritalId,marital,Marital,,maritalId,object,,,,,,,,,,,,,,,,,,,,{1}
,,context,context,,,,text,,FALSE,,,,255,TRUE,';;;;;;;;;;;;;;;;;;;;;;;;;;;;;;;;;;;;;;;;;;;;;;;;;;;;;;;;;;;;;;;;;;;;;;;;;;;;;;;;;;;;;;;;;;;;;;;;;;;;;;;;;;;;;;;;;;;;;;;;;;;;;;;;;;;;;;;;;;;;;;;;;;;;;;;;;;;;;;;;;;;;;;;;;;;;;;;;;;;;;;;;;;;;;;;;;;;;;;;;;;;;;;;;;;;;;;;;;;;;;;;;;;;;;;;;;;;;;;;;;;;;;;;;;;;;;;;',,,,,,,,,,,,
,,jobId,jobTitle,JobTitle,,jobId,object,,,,,,,,,,,,,,,,,,,,{1}
,,root,root,,,,boolean,,FALSE,,,,,,0,,,,,,,,,,,,{1}
,,initializationCounter,initializationCounter,,,,integer,,FALSE,,,,,,1,,,,,,,,,,,,{1}
,,phone,phone,,,,text,,,,,,16,,,,,,,,,,,,,,{'+255787101808'}
 ,,email,email,,,,text,,FALSE,,,TRUE,32,, ,,,,,,,,,,,,{'ndimangwa@gmail.com'}
,,statusId,status ,UserStatus,,statusId,object,,,,,,,,,,,,,,,,,,,,{1}
,,photo,photo,,,,text,,,,,,64,,,,,,,,,,,,,,
,,qnSecurity1,firstSecurityQuestion,SecurityQuestion,,questionId,object,,,,,,,,,,,,,,,,,,,,{1}
,,ansSecurity1,firstSecurityAnswer,,,,text,,,,,,32,,,,,,,,,,,,,,{'Default Answer'}
,,qnSecurity2,secondSecurityQuestion,SecurityQuestion,,questionId,object,,,,,,,,,,,,,,,,,,,,{2}
,,ansSecurity2,secondSecurityAnswer,,,,text,,,,,,32,,,,,,,,,,,,,,{'Default Answer'}
,,firstDayOfAWeekId,firstDayOfAWeek,DaysOfAWeek,,dayId,object,,,,,,,,,,,,,,,,,,,,{1}
,,randomNumber,randomNumber,,,,text,,,,,,32,TRUE,,,,,,,,,,,,,
,,lastLoginTime,lastLoginTime,DateAndTime,text,,object,,,,,,19,,'0000:00:00:00:00:00',,FALSE,,,,,,,,,,
,,extraFilter,extraFilter,,,,text,,,,,,32,,,TRUE,,,,,,,,,,,
,,extraInformation,extraInformation,,,,text,,,,,,64,,,TRUE,,,,,,,,,,,
,,flags,flags,,,,integer,,,,,,,,0,TRUE,,,,,,,,,,,
ApprovalSequenceSchema,_approvalSequenceSchema,schemaId,schemaId,,,,integer,primary,,,,,,,,,,,,,,,,,,,
,,schemaName,schemaName,,,,text,value,FALSE,,,TRUE,48,,,,,,,,,,,,,,
,,operationCode,operationCode,,,,integer,,FALSE,,,,,,,,,,,,,,,,,,
,,approvedJobList,approvedJobList,JobTitle,,jobId,list-object,,,,,,255,,,,,,,,,,,,,,
,,approvingJobList,approvingJobList,JobTitle,,jobId,list-object,,,,,,255,,,,,,,,,,,,,,
,,validity,validity,,,,integer,,FALSE,,,,,,7,,,,,,,,,,,,
,,defaultApproveText,defaultApproveText,,,,text,,FALSE,,,,48,,'Approved By',,,,,,,,,,,,
,,extraFilter,extraFilter,,,,text,,,,,,32,,,TRUE,,,,,,,,,,,
,,extraInformation,extraInformation,,,,text,,,,,,64,,,TRUE,,,,,,,,,,,
,,flags,flags,,,,integer,,,,,,,,0,TRUE,,,,,,,,,,,
ApprovalSequenceData,_approvalSequenceData,dataId,dataId,,,,integer,primary,,,,,,,,,,,,,,,,,,,
,,schemaId,schema,ApprovalSequenceSchema,,schemaId,object,,FALSE,,,,,,,,,,,,,,,,,,
,,requestedBy,requestedBy,Login,,loginId,object,,FALSE,,,,,,,,,,,,,,,,,,
,,nextJobToApprove,nextJobToApprove,JobTitle,,jobId,object,,,,,,,,,,,,,,,,,,,,
,,alreadyApprovedList,alreadyApprovedList,Login,,loginId,list-object,,,,,,255,,,,,,,,,,,,,,
,,timeOfRegistration,timeOfRegistration,DateAndTime,text,,object,,,,,,,,,,FALSE,,,,,,,,,,
,,specialInstruction,specialInstruction,,,,text,,,,,,32,,,,,,,,,,,,,,
,,extraFilter,extraFilter,,,,text,,,,,,32,,,TRUE,,,,,,,,,,,
,,extraInformation,extraInformation,,,,text,,,,,,64,,,TRUE,,,,,,,,,,,
,,flags,flags,,,,integer,,,,,,,,0,TRUE,,,,,,,,,,,
