class,table,colname,property.pname,property.object,property.ref-property,type,settings.data.role,settings.data.regex,settings.data.unique,settings.data.width,settings.data.searchable,settings.data.ref-key-check,settings.ui.control,settings.ui.show-on-page.add,settings.ui.show-on-page.edit,settings.ui.show-on-page.delete,settings.ui.show-on-page.details,settings.ui.do-not-show-on-page.add,settings.ui.do-not-show-on-page.edit,settings.ui.do-not-show-on-page.delete,settings.ui.do-not-show-on-page.details
Sex,sex,sexId,sexId,,,integer,primary,"/^\\d+{10,12}/",TRUE,10,FALSE,,,,,,,,,,
,,sexName,sexName,,,text,primary,,TRUE,16,TRUE,,Input-text,TRUE,TRUE,,TRUE,,TRUE,,
,,extraFilter,extraFilter, ,,text,,,,24,,,,,,,,,,,
,,extraInformation,extraInformation,,,text,,,,32,,,,,,,,,,,
,,flags,flags,,,integer,,,,,,,,,,,,,,,
Marital,marital,maritalId,maritalId,,,integer,primary,,TRUE,,FALSE,,,,,,,,,,
,,maritalName,maritalName,,,text,,,TRUE,16,TRUE,,Input-text,TRUE,TRUE,,TRUE,,TRUE,,
,,extraFilter,extraFilter,,,text,,,,24,,,,,,,,,,,
,,extraInformation,extraInformation,,,text,,,,32,,,,,,,,,,,
,,flags,flags,,,integer,,,,,,,,,,,,,,,
Colour,colour,colourId,colourId,,,integer,primary,,,,FALSE,,,,,,,,,,
,,colourName,colourName,,,text,value,,TRUE,,TRUE,,Input-text,TRUE,TRUE,TRUE,TRUE,,TRUE,,
,,extraFilter,extraFilter,,,text,,,,24,,,,,,,,,,,
,,extraInformation,extraInformation,,,text,,,,32,,,,,,,,,,,
,,flags,flags,,,integer,,,,,,,,,,,,,,,
Flavour,flavour,flavourId,flavourId,,,integer,primary,,,,FALSE,,,,,,,,,,
,,flavourName,flavourName,,,text,primary,,,16,TRUE,,Input-text,TRUE,TRUE,TRUE,TRUE,,TRUE,,
,,extraFilter,extraFilter,,,text,,,,16,,,,,,,,,,,
,,extraInformation,extraInformation,,,text,,,,24,,,,,,,,,,,
,,flags,flags,,,integer,,,,,,,,,,,,,,,
Person,person,personId,personId,,,integer,primary,,,,TRUE,,,,,,,,,,
,,personName,personName,,,text,value,,,32,,,,,,,,,,,
,,age,age,,,integer,,,,,,,,,,,,,,,
,,sexId,sex,Sex,sexId,object,,,,,,TRUE,select,,,,,,,,
,,colourId,colour,Colour,colourId,object,,,,,,,Input-radio,,,,,,,,
,,flavourList,listOfFlavours,Flavour,listOfFlavours,list-object,,,,,,,Input-checkbox,,,,,,,,
,,clever,clever,,,boolean,,,,,,,,,,,,,,,
,,extraFilter,extraFilter,,,text,,,,16,,,,,,,,,,,
,,extraInformation,extraInformation,,,text,,,,24,,,,,,,,,,,
,,flags,flags,,,integer,,,,,,,,,,,,,,,
Country,country,countryId,countryId,,,integer,primary,,,,,,,,,,,,,,
 ,,countryName,countryName,,,text,value,,TRUE,32,TRUE,,,,,,,,,,
,,countryCode,countryCode,,,text,,,TRUE,4,,,,,,,,,,,
,,extraFilter,extraFilter,,,text,,,,16,,,,,,,,,,,
,,extraInformation,extraInformation,,,text,,,,24,,,,,,,,,,,
,,flags,flags,,,integer,,,,,,,,,,,,,,,
Animal,animal,animalId,animalId,,,integer,,,,,,,,,,,,,,,
,,animalName,animalName,,,text,,,,,,,,,,,,,,,
,,colourId,colour,Colour,colourId,integer,,,,,,,,,,,,,,,
